M48
INCH
T01C0.035
T02C0.038
T03C0.0394
T04C0.0433
T05C0.0551
T06C0.0591
T07C0.1575
%
T01
X+036381Y+005508
X+037381Y+005508
X+034444Y+005508
X+033444Y+005508
X+029382Y+005508
X+028382Y+005508
T02
X+021008Y+033248
X+022445Y+033248
X+026445Y+033248
X+017008Y+033248
X+027070Y+010126
X+030694Y+010063
X+030694Y+006063
X+027070Y+006126
X+038818Y+006376
X+038818Y+005126
X+042818Y+005126
X+042818Y+006376
T03
X+032187Y+029812
X+032187Y+030812
X+032187Y+028812
X+032187Y+027812
X+032187Y+026812
X+032187Y+025812
X+032187Y+024812
X+032187Y+023812
X+032187Y+022812
X+032187Y+021812
X+032187Y+020812
X+032187Y+019812
X+032187Y+018812
X+032187Y+017812
X+032187Y+016812
X+032187Y+015812
X+032187Y+014812
X+032187Y+013812
X+032187Y+012812
X+032187Y+011812
X+032187Y+010812
X+032187Y+009812
X+032187Y+008812
X+032187Y+007812
X+038187Y+007812
X+038187Y+008812
X+038187Y+009812
X+038187Y+010812
X+038187Y+011812
X+038187Y+012812
X+038187Y+013812
X+038187Y+014812
X+038187Y+015812
X+038187Y+016812
X+038187Y+017812
X+038187Y+018812
X+038187Y+019812
X+038187Y+020812
X+038187Y+021812
X+038187Y+022812
X+038187Y+023812
X+038187Y+024812
X+038187Y+025812
X+038187Y+026812
X+038187Y+027812
X+038187Y+028812
X+038187Y+029812
X+038187Y+030812
T04
X+008261Y+010562
X+009261Y+010562
X+010261Y+010562
X+010261Y+007562
X+009261Y+007562
X+008261Y+007562
X+014166Y+007562
X+015166Y+007562
X+016166Y+007562
X+016166Y+010687
X+015166Y+010687
X+014166Y+010687
X+020072Y+010812
X+021072Y+010812
X+022072Y+010812
X+022072Y+007687
X+021072Y+007687
X+020072Y+007687
X+024195Y+005376
X+025195Y+005376
X+024040Y+017250
X+024040Y+018250
X+023040Y+018250
X+023040Y+017250
X+022040Y+017250
X+022040Y+018250
X+022040Y+019250
X+022040Y+020250
X+023040Y+020250
X+024040Y+020250
X+024040Y+019250
X+023040Y+019250
X+020603Y+024799
X+019603Y+024799
X+018603Y+024799
X+017603Y+024799
X+017603Y+029524
X+018603Y+029524
X+019603Y+029524
X+020603Y+029524
X+025477Y+029524
X+026477Y+029524
X+027477Y+029524
X+028477Y+029524
X+028477Y+024799
X+027477Y+024799
X+026477Y+024799
X+025477Y+024799
X+025509Y+036217
X+026509Y+036217
X+024509Y+036217
X+023509Y+036217
X+020603Y+036217
X+019603Y+036217
X+018603Y+036217
X+017603Y+036217
X+029414Y+036217
X+030414Y+036217
X+031414Y+036217
X+032414Y+036217
X+041225Y+036217
X+042225Y+036217
X+043225Y+036217
X+044225Y+036217
X+047131Y+036217
X+048131Y+036217
X+049131Y+036217
X+050131Y+036217
X+053036Y+036217
X+054036Y+036217
X+055036Y+036217
X+056036Y+036217
X+056036Y+032280
X+055036Y+032280
X+054036Y+032280
X+053036Y+032280
X+050131Y+032280
X+049131Y+032280
X+048131Y+032280
X+047131Y+032280
X+042312Y+026687
X+042312Y+025687
X+042312Y+024687
X+042312Y+023687
X+042312Y+022687
X+042312Y+021687
X+042312Y+020687
X+042312Y+019687
X+044000Y+013750
X+045000Y+013750
X+046000Y+013750
X+046000Y+012750
X+045000Y+012750
X+044000Y+012750
X+044000Y+011750
X+044000Y+010750
X+045000Y+010750
X+045000Y+011750
X+046000Y+011750
X+046000Y+010750
X+046000Y+009750
X+045000Y+009750
X+044000Y+009750
X+044000Y+008750
X+044000Y+007750
X+045000Y+007750
X+045000Y+008750
X+046000Y+008750
X+046000Y+007750
X+054379Y+012938
X+055379Y+012938
X+056379Y+012938
T05
X+056442Y+008001
X+054473Y+008001
X+011812Y+036187
X+009812Y+036187
T06
X+014687Y+014437
X+006562Y+014437
X+006562Y+032500
X+014687Y+032500
T07
X+006111Y+037373
X+006111Y+005814
X+054536Y+016188
X+054536Y+028561
T00
M30
