G04 DipTrace 3.0.0.2*
G04 TopMask.gbr*
%MOMM*%
G04 #@! TF.FileFunction,Soldermask,Top*
G04 #@! TF.Part,Single*
%ADD19R,1.7X1.7*%
%ADD20C,1.7*%
%ADD40C,2.5*%
%ADD42R,2.5X2.5*%
%ADD44C,2.4*%
%ADD45C,1.724*%
%ADD47C,1.724*%
%ADD49C,1.6732*%
%ADD51C,1.9*%
%ADD52R,1.9X1.9*%
%FSLAX35Y35*%
G04*
G71*
G90*
G75*
G01*
G04 TopMask*
%LPD*%
D52*
X2098250Y2682700D3*
D51*
X2352250D3*
X2606250D3*
D52*
X3598250Y2714500D3*
D51*
X3852250D3*
X4106250D3*
D52*
X2098250Y1920700D3*
D51*
X2352250D3*
X2606250D3*
D52*
X3598250D3*
D51*
X3852250D3*
X4106250D3*
D52*
X5098250Y2746200D3*
D51*
X5352250D3*
X5606250D3*
D52*
X5098250Y1952500D3*
D51*
X5352250D3*
X5606250D3*
D49*
X8175500Y7572250D3*
Y7318250D3*
Y7064250D3*
Y6810250D3*
X9699500Y7318250D3*
X8175500Y4270250D3*
Y6556250D3*
Y6302250D3*
Y6048250D3*
Y5794250D3*
Y5540250D3*
Y5286250D3*
Y5032250D3*
Y4778250D3*
Y4524250D3*
X9699500D3*
Y4778250D3*
X9699480Y5032250D3*
X9699500Y5286250D3*
Y5540250D3*
Y5794250D3*
Y6048250D3*
X9699480Y6302250D3*
X9699500Y6556250D3*
Y6810250D3*
Y7064250D3*
Y7572250D3*
X8175500Y7826250D3*
Y4016250D3*
Y3762250D3*
Y3508250D3*
Y3254250D3*
X9699500Y7826250D3*
X8175500Y3000250D3*
Y2746250D3*
Y2492250D3*
Y2238250D3*
X9699500Y4270250D3*
Y4016250D3*
Y3762250D3*
Y3508250D3*
Y3254250D3*
Y3000250D3*
Y2746250D3*
Y2492250D3*
Y2238250D3*
X8175500Y1984250D3*
X9699500D3*
D52*
X10747250Y6778500D3*
D51*
Y6524500D3*
Y6270500D3*
Y6016500D3*
Y5762500D3*
Y5508500D3*
Y5254500D3*
Y5000500D3*
D47*
X5335977Y8445087D3*
D45*
X4319977D3*
D47*
X6716957D3*
D45*
X5700957D3*
D52*
X4471250Y9199000D3*
D51*
X4725250D3*
X4979250D3*
X5233250D3*
D52*
X5971250D3*
D51*
X6225250D3*
X6479250D3*
X6733250D3*
D52*
X7471250D3*
D51*
X7725250D3*
X7979250D3*
X8233250D3*
D52*
X10471250D3*
D51*
X10725250D3*
X10979250D3*
X11233250D3*
D52*
X11971250D3*
D51*
X12225250D3*
X12479250D3*
X12733250D3*
D52*
X11971250Y8199000D3*
D51*
X12225250D3*
X12479250D3*
X12733250D3*
D52*
X13471250Y9199000D3*
D51*
X13725250D3*
X13979250D3*
X14233250D3*
D52*
X13471250Y8199000D3*
D51*
X13725250D3*
X13979250D3*
X14233250D3*
D52*
X5233250Y7499000D3*
D51*
X4979250D3*
X4725250D3*
X4471250D3*
D52*
X7233250D3*
D51*
X6979250D3*
X6725250D3*
X6471250D3*
D52*
X5233250Y6299000D3*
D51*
X4979250D3*
X4725250D3*
X4471250D3*
D52*
X7233250D3*
D51*
X6979250D3*
X6725250D3*
X6471250D3*
D52*
X11175873Y2730377D3*
D51*
X11429873D3*
X11683873D3*
D52*
X11175873Y2984373D3*
D51*
X11429873D3*
X11683873D3*
D52*
X11175873Y3238377D3*
D51*
X11429873D3*
X11683873D3*
D52*
X11175873Y3492377D3*
D51*
X11429873D3*
X11683873D3*
D52*
X11175873Y1968377D3*
D51*
X11429873D3*
X11683873D3*
D52*
X11175873Y2222373D3*
D51*
X11429873D3*
X11683873D3*
D52*
X11175873Y2476377D3*
D51*
X11429873D3*
X11683873D3*
D44*
X3730500Y3667000D3*
Y8254873D3*
X1666753D3*
X1666750Y3667000D3*
D52*
X14320283Y3286253D3*
D51*
X14066283D3*
X13812283D3*
D42*
X14336157Y2032260D3*
D40*
X13836157D3*
D42*
X3000250Y9191500D3*
D40*
X2492250D3*
D52*
X5598250Y5143433D3*
D51*
X5852250D3*
X6106250D3*
D52*
X5598250Y4889433D3*
D51*
X5852250D3*
X6106250D3*
D52*
X5598250Y4635430D3*
D51*
X5852250D3*
X6106250D3*
D52*
X5598250Y4381433D3*
D51*
X5852250D3*
X6106250D3*
D20*
X9240790Y1399000D3*
D19*
X9494790D3*
D20*
X7463003D3*
D19*
X7209003D3*
D20*
X8494743D3*
D19*
X8748743D3*
D47*
X10875770Y1619553D3*
D45*
X9859770D3*
D47*
X10875770Y1302087D3*
D45*
X9859770D3*
D47*
X6875690Y2571953D3*
D45*
Y1555953D3*
D47*
X7796343Y2556080D3*
D45*
Y1540080D3*
D52*
X6399490Y1365580D3*
D51*
X6145490D3*
M02*
